VCO/Osciloscopio DAC/SDS00003.CSV

Record Length,8000,,Source,CH1
Sample Interval,CH1:0.0000020000000,,Second,Volt
Vertical Units,CH1:V,,-0.00800000038,2.52000,
Vertical Scale,CH1:1.00,,-0.00799799990,2.52000,
Vertical Offset,CH1:0.00,,-0.00799600035,2.52000,
Horizontal Units,s,,-0.00799399987,2.52000,
Horizontal Scale,0.0010000000,,-0.00799200032,2.48000,
Model Number,SDS1072CML+,,-0.00798999984,2.48000,
Serial Number,SDS1MCB4166837,,-0.00798800029,2.48000,
Software Version,6.01.01.18,,-0.00798599981,2.48000,
,,,-0.00798400026,2.48000,
,,,-0.00798199978,2.52000,
,,,-0.00798000023,2.52000,
,,,-0.00797799975,2.48000,
,,,-0.00797600020,2.52000,
,,,-0.00797399972,2.52000,
,,,-0.00797200017,2.52000,
,,,-0.00796999969,2.52000,
,,,-0.00796800014,2.52000,
,,,-0.00796599966,2.52000,
,,,-0.00796400011,2.48000,
,,,-0.00796199962,2.52000,
,,,-0.00796000008,2.52000,
,,,-0.00795799959,2.52000,
,,,-0.00795600004,2.52000,
,,,-0.00795399956,2.52000,
,,,-0.00795200001,2.48000,
,,,-0.00794999953,2.52000,
,,,-0.00794799998,2.44000,
,,,-0.00794600043,2.48000,
,,,-0.00794399995,2.52000,
,,,-0.00794200040,2.52000,
,,,-0.00793999992,2.52000,
,,,-0.00793800037,2.52000,
,,,-0.00793599989,2.52000,
,,,-0.00793400034,2.52000,
,,,-0.00793199986,2.52000,
,,,-0.00793000031,2.48000,
,,,-0.00792799983,2.48000,
,,,-0.00792600028,2.48000,
,,,-0.00792399980,2.52000,
,,,-0.00792200025,2.52000,
,,,-0.00791999977,2.52000,
,,,-0.00791800022,2.48000,
,,,-0.00791599974,2.48000,
,,,-0.00791400019,2.52000,
,,,-0.00791199971,2.48000,
,,,-0.00791000016,2.48000,
,,,-0.00790799968,2.48000,
,,,-0.00790600013,2.52000,
,,,-0.00790399965,2.52000,
,,,-0.00790200010,2.52000,
,,,-0.00789999962,2.48000,
,,,-0.00789800007,2.48000,
,,,-0.00789599959,2.52000,
,,,-0.00789400004,2.52000,
,,,-0.00789199956,2.52000,
,,,-0.00789000001,2.52000,
,,,-0.00788799953,2.48000,
,,,-0.00788599998,2.36000,
,,,-0.00788400043,2.32000,
,,,-0.00788199995,2.32000,
,,,-0.00788000040,2.32000,
,,,-0.00787799992,2.32000,
,,,-0.00787600037,2.32000,
,,,-0.00787399989,2.32000,
,,,-0.00787200034,2.28000,
,,,-0.00786999986,2.32000,
,,,-0.00786800031,2.32000,
,,,-0.00786599983,2.32000,
,,,-0.00786400028,2.32000,
,,,-0.00786199979,2.32000,
,,,-0.00786000025,2.32000,
,,,-0.00785799976,2.32000,
,,,-0.00785600021,2.32000,
,,,-0.00785399973,2.36000,
,,,-0.00785200018,2.32000,
,,,-0.00784999970,2.32000,
,,,-0.00784800015,2.32000,
,,,-0.00784599967,2.32000,
,,,-0.00784400012,2.36000,
,,,-0.00784199964,2.28000,
,,,-0.00784000009,2.32000,
,,,-0.00783799961,2.28000,
,,,-0.00783600006,2.32000,
,,,-0.00783399958,2.32000,
,,,-0.00783200003,2.32000,
,,,-0.00782999955,2.32000,
,,,-0.00782800000,2.32000,
,,,-0.00782599952,2.32000,
,,,-0.00782399997,2.32000,
,,,-0.00782200042,2.32000,
,,,-0.00781999994,2.32000,
,,,-0.00781800039,2.28000,
,,,-0.00781599991,2.32000,
,,,-0.00781400036,2.32000,
,,,-0.00781199988,2.36000,
,,,-0.00780999986,2.32000,
,,,-0.00780799985,2.32000,
,,,-0.00780599983,2.32000,
,,,-0.00780399982,2.32000,
,,,-0.00780199980,2.32000,
,,,-0.00779999979,2.32000,
,,,-0.00779799977,2.32000,
,,,-0.00779599976,2.28000,
,,,-0.00779400021,2.32000,
,,,-0.00779200019,2.32000,
,,,-0.00779000018,2.32000,
,,,-0.00778800016,2.32000,
,,,-0.00778600015,2.32000,
,,,-0.00778400013,2.32000,
,,,-0.00778200012,2.32000,
,,,-0.00778000010,2.32000,
,,,-0.00777800009,2.36000,
,,,-0.00777600007,2.28000,
,,,-0.00777400006,2.32000,
,,,-0.00777200004,2.32000,
,,,-0.00777000003,2.32000,
,,,-0.00776800001,2.32000,
,,,-0.00776600000,2.32000,
,,,-0.00776399998,2.32000,
,,,-0.00776199996,2.20000,
,,,-0.00775999995,2.12000,
,,,-0.00775799993,2.16000,
,,,-0.00775599992,2.12000,
,,,-0.00775399990,2.12000,
,,,-0.00775199989,2.12000,
,,,-0.00774999987,2.12000,
,,,-0.00774799986,2.12000,
,,,-0.00774599984,2.12000,
,,,-0.00774399983,2.12000,
,,,-0.00774199981,2.12000,
,,,-0.00773999980,2.16000,
,,,-0.00773799978,2.16000,
,,,-0.00773599977,2.20000,
,,,-0.00773399975,2.16000,
,,,-0.00773200020,2.12000,
,,,-0.00773000019,2.16000,
,,,-0.00772800017,2.16000,
,,,-0.00772600016,2.12000,
,,,-0.00772400014,2.12000,
,,,-0.00772200013,2.16000,
,,,-0.00772000011,2.12000,
,,,-0.00771800010,2.16000,
,,,-0.00771600008,2.12000,
,,,-0.00771400006,2.16000,
,,,-0.00771200005,2.16000,
,,,-0.00771000003,2.16000,
,,,-0.00770800002,2.16000,
,,,-0.00770600000,2.16000,
,,,-0.00770399999,2.16000,
,,,-0.00770199997,2.16000,
,,,-0.00769999996,2.12000,
,,,-0.00769799994,2.12000,
,,,-0.00769599993,2.16000,
,,,-0.00769399991,2.16000,
,,,-0.00769199990,2.12000,
,,,-0.00768999988,2.16000,
,,,-0.00768799987,2.12000,
,,,-0.00768599985,2.12000,
,,,-0.00768399984,2.16000,
,,,-0.00768199982,2.12000,
,,,-0.00767999981,2.12000,
,,,-0.00767799979,2.16000,
,,,-0.00767599978,2.16000,
,,,-0.00767399976,2.12000,
,,,-0.00767200021,2.16000,
,,,-0.00767000020,2.16000,
,,,-0.00766800018,2.16000,
,,,-0.00766600017,2.16000,
,,,-0.00766400015,2.12000,
,,,-0.00766200013,2.16000,
,,,-0.00766000012,2.16000,
,,,-0.00765800010,2.16000,
,,,-0.00765600009,2.16000,
,,,-0.00765400007,2.12000,
,,,-0.00765200006,2.12000,
,,,-0.00765000004,2.12000,
,,,-0.00764800003,2.20000,
,,,-0.00764600001,2.20000,
,,,-0.00764400000,2.16000,
,,,-0.00764199998,2.12000,
,,,-0.00763999997,2.16000,
,,,-0.00763799995,2.04000,
,,,-0.00763599994,2.04000,
,,,-0.00763399992,2.04000,
,,,-0.00763199991,2.00000,
,,,-0.00762999989,2.04000,
,,,-0.00762799988,2.04000,
,,,-0.00762599986,2.00000,
,,,-0.00762399985,2.00000,
,,,-0.00762199983,2.04000,
,,,-0.00761999981,2.04000,
,,,-0.00761799980,2.00000,
,,,-0.00761599978,2.00000,
,,,-0.00761399977,2.00000,
,,,-0.00761199975,2.00000,
,,,-0.00761000020,2.00000,
,,,-0.00760800019,2.00000,
,,,-0.00760600017,2.00000,
,,,-0.00760400016,2.04000,
,,,-0.00760200014,2.00000,
,,,-0.00760000013,2.00000,
,,,-0.00759800011,2.00000,
,,,-0.00759600010,2.00000,
,,,-0.00759400008,2.00000,
,,,-0.00759200007,2.00000,
,,,-0.00759000005,2.00000,
,,,-0.00758800004,2.04000,
,,,-0.00758600002,2.00000,
,,,-0.00758400001,1.96000,
,,,-0.00758199999,2.00000,
,,,-0.00757999998,2.00000,
,,,-0.00757799996,2.00000,
,,,-0.00757599995,2.00000,
,,,-0.00757399993,2.04000,
,,,-0.00757199991,2.00000,
,,,-0.00756999990,2.00000,
,,,-0.00756799988,2.00000,
,,,-0.00756599987,2.00000,
,,,-0.00756399985,2.00000,
,,,-0.00756199984,2.00000,
,,,-0.00755999982,2.04000,
,,,-0.00755799981,2.00000,
,,,-0.00755599979,2.00000,
,,,-0.00755399978,2.04000,
,,,-0.00755199976,2.00000,
,,,-0.00755000021,2.04000,
,,,-0.00754800020,2.00000,
,,,-0.00754600018,2.00000,
,,,-0.00754400017,2.04000,
,,,-0.00754200015,2.04000,
,,,-0.00754000014,2.00000,
,,,-0.00753800012,2.00000,
,,,-0.00753600011,2.04000,
,,,-0.00753400009,2.04000,
,,,-0.00753200008,2.04000,
,,,-0.00753000006,2.00000,
,,,-0.00752800005,2.00000,
,,,-0.00752600003,2.04000,
,,,-0.00752400002,2.00000,
,,,-0.00752200000,2.00000,
,,,-0.00751999998,2.04000,
,,,-0.00751799997,2.00000,
,,,-0.00751599995,2.00000,
,,,-0.00751399994,1.96000,
,,,-0.00751199992,1.88000,
,,,-0.00750999991,1.88000,
,,,-0.00750799989,1.88000,
,,,-0.00750599988,1.88000,
,,,-0.00750399986,1.88000,
,,,-0.00750199985,1.88000,
,,,-0.00749999983,1.88000,
,,,-0.00749799982,1.88000,
,,,-0.00749599980,1.88000,
,,,-0.00749399979,1.88000,
,,,-0.00749199977,1.88000,
,,,-0.00748999976,1.88000,
,,,-0.00748800021,1.88000,
,,,-0.00748600019,1.88000,
,,,-0.00748400018,1.88000,
,,,-0.00748200016,1.88000,
,,,-0.00748000015,1.88000,
,,,-0.00747800013,1.88000,
,,,-0.00747600012,1.88000,
,,,-0.00747400010,1.88000,
,,,-0.00747200008,1.88000,
,,,-0.00747000007,1.88000,
,,,-0.00746800005,1.88000,
,,,-0.00746600004,1.88000,
,,,-0.00746400002,1.88000,
,,,-0.00746200001,1.88000,
,,,-0.00745999999,1.88000,
,,,-0.00745799998,1.88000,
,,,-0.00745599996,1.88000,
,,,-0.00745399995,1.88000,
,,,-0.00745199993,1.88000,
,,,-0.00744999992,1.88000,
,,,-0.00744799990,1.84000,
,,,-0.00744599989,1.88000,
,,,-0.00744399987,1.88000,
,,,-0.00744199986,1.88000,
,,,-0.00743999984,1.88000,
,,,-0.00743799983,1.88000,
,,,-0.00743599981,1.88000,
,,,-0.00743399980,1.88000,
,,,-0.00743199978,1.84000,
,,,-0.00742999977,1.88000,
,,,-0.00742799975,1.88000,
,,,-0.00742600020,1.88000,
,,,-0.00742400018,1.88000,
,,,-0.00742200017,1.88000,
,,,-0.00742000015,1.88000,
,,,-0.00741800014,1.88000,
,,,-0.00741600012,1.84000,
,,,-0.00741400011,1.88000,
,,,-0.00741200009,1.88000,
,,,-0.00741000008,1.88000,
,,,-0.00740800006,1.88000,
,,,-0.00740600005,1.88000,
,,,-0.00740400003,1.88000,
,,,-0.00740200002,1.88000,
,,,-0.00740000000,1.88000,
,,,-0.00739799999,1.88000,
,,,-0.00739599997,1.88000,
,,,-0.00739399996,1.88000,
,,,-0.00739199994,1.88000,
,,,-0.00738999993,1.88000,
,,,-0.00738799991,1.76000,
,,,-0.00738599990,1.72000,
,,,-0.00738399988,1.72000,
,,,-0.00738199987,1.76000,
,,,-0.00737999985,1.76000,
,,,-0.00737799983,1.76000,
,,,-0.00737599982,1.72000,
,,,-0.00737399980,1.76000,
,,,-0.00737199979,1.76000,
,,,-0.00736999977,1.76000,
,,,-0.00736799976,1.72000,
,,,-0.00736600021,1.72000,
,,,-0.00736400019,1.72000,
,,,-0.00736200018,1.76000,
,,,-0.00736000016,1.76000,
,,,-0.00735800015,1.72000,
,,,-0.00735600013,1.72000,
,,,-0.00735400012,1.72000,
,,,-0.00735200010,1.76000,
,,,-0.00735000009,1.72000,
,,,-0.00734800007,1.80000,
,,,-0.00734600006,1.76000,
,,,-0.00734400004,1.72000,
,,,-0.00734200003,1.72000,
,,,-0.00734000001,1.76000,
,,,-0.00733800000,1.72000,
,,,-0.00733599998,1.76000,
,,,-0.00733399997,1.72000,
,,,-0.00733199995,1.72000,
,,,-0.00732999993,1.76000,
,,,-0.00732799992,1.72000,
,,,-0.00732599990,1.76000,
,,,-0.00732399989,1.76000,
,,,-0.00732199987,1.72000,
,,,-0.00731999986,1.76000,
,,,-0.00731799984,1.76000,
,,,-0.00731599983,1.76000,
,,,-0.00731399981,1.72000,
,,,-0.00731199980,1.76000,
,,,-0.00730999978,1.72000,
,,,-0.00730799977,1.76000,
,,,-0.00730599975,1.72000,
,,,-0.00730400020,1.76000,
,,,-0.00730200019,1.76000,
,,,-0.00730000017,1.72000,
,,,-0.00729800016,1.76000,
,,,-0.00729600014,1.76000,
,,,-0.00729400013,1.76000,
,,,-0.00729200011,1.76000,
,,,-0.00729000010,1.72000,
,,,-0.00728800008,1.76000,
,,,-0.00728600007,1.72000,
,,,-0.00728400005,1.72000,
,,,-0.00728200004,1.72000,
,,,-0.00728000002,1.72000,
,,,-0.00727800000,1.76000,
,,,-0.00727599999,1.72000,
,,,-0.00727399997,1.72000,
,,,-0.00727199996,1.72000,
,,,-0.00726999994,1.76000,
,,,-0.00726799993,1.72000,
,,,-0.00726599991,1.76000,
,,,-0.00726399990,1.60000,
,,,-0.00726199988,1.64000,
,,,-0.00725999987,1.64000,
,,,-0.00725799985,1.60000,
,,,-0.00725599984,1.64000,
,,,-0.00725399982,1.64000,
,,,-0.00725199981,1.60000,
,,,-0.00724999979,1.64000,
,,,-0.00724799978,1.60000,
,,,-0.00724599976,1.64000,
,,,-0.00724400021,1.64000,
,,,-0.00724200020,1.64000,
,,,-0.00724000018,1.64000,
,,,-0.00723800017,1.64000,
,,,-0.00723600015,1.60000,
,,,-0.00723400014,1.64000,
,,,-0.00723200012,1.60000,
,,,-0.00723000010,1.60000,
,,,-0.00722800009,1.64000,
,,,-0.00722600007,1.60000,
,,,-0.00722400006,1.64000,
,,,-0.00722200004,1.64000,
,,,-0.00722000003,1.64000,
,,,-0.00721800001,1.64000,
,,,-0.00721600000,1.60000,
,,,-0.00721399998,1.64000,
,,,-0.00721199997,1.64000,
,,,-0.00720999995,1.60000,
,,,-0.00720799994,1.64000,
,,,-0.00720599992,1.60000,
,,,-0.00720399991,1.60000,
,,,-0.00720199989,1.60000,
,,,-0.00719999988,1.64000,
,,,-0.00719799986,1.60000,
,,,-0.00719599985,1.64000,
,,,-0.00719399983,1.64000,
,,,-0.00719199982,1.60000,
,,,-0.00718999980,1.60000,
,,,-0.00718799978,1.64000,
,,,-0.00718599977,1.64000,
,,,-0.00718399975,1.64000,
,,,-0.00718200020,1.60000,
,,,-0.00718000019,1.60000,
,,,-0.00717800017,1.64000,
,,,-0.00717600016,1.64000,
,,,-0.00717400014,1.60000,
,,,-0.00717200013,1.60000,
,,,-0.00717000011,1.64000,
,,,-0.00716800010,1.64000,
,,,-0.00716600008,1.60000,
,,,-0.00716400007,1.60000,
,,,-0.00716200005,1.60000,
,,,-0.00716000004,1.60000,
,,,-0.00715800002,1.60000,
,,,-0.00715600001,1.60000,
,,,-0.00715399999,1.64000,
,,,-0.00715199998,1.60000,
,,,-0.00714999996,1.60000,
,,,-0.00714799995,1.56000,
,,,-0.00714599993,1.60000,
,,,-0.00714399992,1.60000,
,,,-0.00714199990,1.64000,
,,,-0.00713999989,1.52000,
,,,-0.00713799987,1.48000,
,,,-0.00713599985,1.48000,
,,,-0.00713399984,1.48000,
,,,-0.00713199982,1.48000,
,,,-0.00712999981,1.48000,
,,,-0.00712799979,1.48000,
,,,-0.00712599978,1.48000,
,,,-0.00712399976,1.48000,
,,,-0.00712200021,1.48000,
,,,-0.00712000020,1.48000,
,,,-0.00711800018,1.48000,
,,,-0.00711600017,1.48000,
,,,-0.00711400015,1.48000,
,,,-0.00711200014,1.44000,
,,,-0.00711000012,1.48000,
,,,-0.00710800011,1.48000,
,,,-0.00710600009,1.48000,
,,,-0.00710400008,1.48000,
,,,-0.00710200006,1.48000,
,,,-0.00710000005,1.48000,
,,,-0.00709800003,1.48000,
,,,-0.00709600002,1.48000,
,,,-0.00709400000,1.48000,
,,,-0.00709199999,1.44000,
,,,-0.00708999997,1.48000,
,,,-0.00708799995,1.48000,
,,,-0.00708599994,1.48000,
,,,-0.00708399992,1.48000,
,,,-0.00708199991,1.48000,
,,,-0.00707999989,1.48000,
,,,-0.00707799988,1.48000,
,,,-0.00707599986,1.48000,
,,,-0.00707399985,1.48000,
,,,-0.00707199983,1.48000,
,,,-0.00706999982,1.48000,
,,,-0.00706799980,1.48000,
,,,-0.00706599979,1.48000,
,,,-0.00706399977,1.48000,
,,,-0.00706199976,1.52000,
,,,-0.00706000021,1.48000,
,,,-0.00705800019,1.48000,
,,,-0.00705600018,1.48000,
,,,-0.00705400016,1.48000,
,,,-0.00705200015,1.44000,
,,,-0.00705000013,1.48000,
,,,-0.00704800012,1.48000,
,,,-0.00704600010,1.48000,
,,,-0.00704400009,1.48000,
,,,-0.00704200007,1.48000,
,,,-0.00704000005,1.48000,
,,,-0.00703800004,1.48000,
,,,-0.00703600002,1.44000,
,,,-0.00703400001,1.44000,
,,,-0.00703199999,1.48000,
,,,-0.00702999998,1.48000,
,,,-0.00702799996,1.48000,
,,,-0.00702599995,1.48000,
,,,-0.00702399993,1.48000,
,,,-0.00702199992,1.48000,
,,,-0.00701999990,1.48000,
,,,-0.00701799989,1.48000,
,,,-0.00701599987,1.48000,
,,,-0.00701399986,1.48000,
,,,-0.00701199984,1.48000,
,,,-0.00700999983,1.48000,
,,,-0.00700799981,1.48000,
,,,-0.00700599980,1.32000,
,,,-0.00700399978,1.32000,
,,,-0.00700199977,1.36000,
,,,-0.00699999975,1.32000,
,,,-0.00699800020,1.32000,
,,,-0.00699600019,1.36000,
,,,-0.00699400017,1.32000,
,,,-0.00699200016,1.32000,
,,,-0.00699000014,1.32000,
,,,-0.00698800012,1.32000,
,,,-0.00698600011,1.32000,
,,,-0.00698400009,1.32000,
,,,-0.00698200008,1.32000,
,,,-0.00698000006,1.32000,
,,,-0.00697800005,1.32000,
,,,-0.00697600003,1.36000,
,,,-0.00697400002,1.32000,
,,,-0.00697200000,1.36000,
,,,-0.00696999999,1.36000,
,,,-0.00696799997,1.36000,
,,,-0.00696599996,1.36000,
,,,-0.00696399994,1.32000,
,,,-0.00696199993,1.32000,
,,,-0.00695999991,1.36000,
,,,-0.00695799990,1.32000,
,,,-0.00695599988,1.36000,
,,,-0.00695399987,1.32000,
,,,-0.00695199985,1.32000,
,,,-0.00694999984,1.32000,
,,,-0.00694799982,1.32000,
,,,-0.00694599980,1.32000,
,,,-0.00694399979,1.32000,
,,,-0.00694199977,1.32000,
,,,-0.00693999976,1.32000,
,,,-0.00693800021,1.36000,
,,,-0.00693600019,1.36000,
,,,-0.00693400018,1.32000,
,,,-0.00693200016,1.36000,
,,,-0.00693000015,1.32000,
,,,-0.00692800013,1.36000,
,,,-0.00692600012,1.32000,
,,,-0.00692400010,1.32000,
,,,-0.00692200009,1.32000,
,,,-0.00692000007,1.32000,
,,,-0.00691800006,1.32000,
,,,-0.00691600004,1.32000,
,,,-0.00691400003,1.36000,
,,,-0.00691200001,1.32000,
,,,-0.00691000000,1.32000,
,,,-0.00690799998,1.32000,
,,,-0.00690599997,1.36000,
,,,-0.00690399995,1.32000,
,,,-0.00690199994,1.36000,
,,,-0.00689999992,1.32000,
,,,-0.00689799991,1.36000,
,,,-0.00689599989,1.32000,
,,,-0.00689399987,1.32000,
,,,-0.00689199986,1.32000,
,,,-0.00688999984,1.36000,
,,,-0.00688799983,1.36000,
,,,-0.00688599981,1.32000,
,,,-0.00688399980,1.36000,
,,,-0.00688199978,1.20000,
,,,-0.00687999977,1.20000,
,,,-0.00687799975,1.20000,
,,,-0.00687600020,1.20000,
,,,-0.00687400019,1.16000,
,,,-0.00687200017,1.24000,
,,,-0.00687000016,1.24000,
,,,-0.00686800014,1.20000,
,,,-0.00686600013,1.20000,
,,,-0.00686400011,1.20000,
,,,-0.00686200010,1.16000,
,,,-0.00686000008,1.20000,
,,,-0.00685800007,1.24000,
,,,-0.00685600005,1.20000,
,,,-0.00685400004,1.20000,
,,,-0.00685200002,1.20000,
,,,-0.00685000001,1.20000,
,,,-0.00684799999,1.20000,
,,,-0.00684599997,1.16000,
,,,-0.00684399996,1.20000,
,,,-0.00684199994,1.20000,
,,,-0.00683999993,1.20000,
,,,-0.00683799991,1.16000,
,,,-0.00683599990,1.20000,
,,,-0.00683399988,1.20000,
,,,-0.00683199987,1.20000,
,,,-0.00682999985,1.20000,
,,,-0.00682799984,1.20000,
,,,-0.00682599982,1.24000,
,,,-0.00682399981,1.20000,
,,,-0.00682199979,1.20000,
,,,-0.00681999978,1.20000,
,,,-0.00681799976,1.20000,
,,,-0.00681600021,1.20000,
,,,-0.00681400020,1.24000,
,,,-0.00681200018,1.20000,
,,,-0.00681000017,1.20000,
,,,-0.00680800015,1.20000,
,,,-0.00680600014,1.24000,
,,,-0.00680400012,1.20000,
,,,-0.00680200011,1.24000,
,,,-0.00680000009,1.20000,
,,,-0.00679800007,1.20000,
,,,-0.00679600006,1.20000,
,,,-0.00679400004,1.20000,
,,,-0.00679200003,1.20000,
,,,-0.00679000001,1.20000,
,,,-0.00678800000,1.20000,
,,,-0.00678599998,1.20000,
,,,-0.00678399997,1.20000,
,,,-0.00678199995,1.20000,
,,,-0.00677999994,1.20000,
,,,-0.00677799992,1.20000,
,,,-0.00677599991,1.24000,
,,,-0.00677399989,1.20000,
,,,-0.00677199988,1.20000,
,,,-0.00676999986,1.16000,
,,,-0.00676799985,1.20000,
,,,-0.00676599983,1.24000,
,,,-0.00676399982,1.24000,
,,,-0.00676199980,1.20000,
,,,-0.00675999979,1.16000,
,,,-0.00675799977,1.08000,
,,,-0.00675599976,1.08000,
,,,-0.00675400021,1.08000,
,,,-0.00675200019,1.08000,
,,,-0.00675000018,1.08000,
,,,-0.00674800016,1.08000,
,,,-0.00674600014,1.00000,
,,,-0.00674400013,1.08000,
,,,-0.00674200011,1.00000,
,,,-0.00674000010,1.08000,
,,,-0.00673800008,1.08000,
,,,-0.00673600007,1.08000,
,,,-0.00673400005,1.08000,
,,,-0.00673200004,1.08000,
,,,-0.00673000002,1.08000,
,,,-0.00672800001,1.08000,
,,,-0.00672599999,1.08000,
,,,-0.00672399998,1.08000,
,,,-0.00672199996,1.08000,
,,,-0.00671999995,1.08000,
,,,-0.00671799993,1.08000,
,,,-0.00671599992,1.08000,
,,,-0.00671399990,1.00000,
,,,-0.00671199989,1.08000,
,,,-0.00670999987,1.08000,
,,,-0.00670799986,1.08000,
,,,-0.00670599984,1.08000,
,,,-0.00670399982,1.08000,
,,,-0.00670199981,1.08000,
,,,-0.00669999979,1.08000,
,,,-0.00669799978,1.08000,
,,,-0.00669599976,1.08000,
,,,-0.00669400021,1.08000,
,,,-0.00669200020,1.08000,
,,,-0.00669000018,1.00000,
,,,-0.00668800017,1.08000,
,,,-0.00668600015,1.08000,
,,,-0.00668400014,1.08000,
,,,-0.00668200012,1.08000,
,,,-0.00668000011,1.08000,
,,,-0.00667800009,1.08000,
,,,-0.00667600008,1.08000,
,,,-0.00667400006,1.08000,
,,,-0.00667200005,1.08000,
,,,-0.00667000003,1.08000,
,,,-0.00666800002,1.08000,
,,,-0.00666600000,1.08000,
,,,-0.00666399999,1.08000,
,,,-0.00666199997,1.08000,
,,,-0.00665999996,1.08000,
,,,-0.00665799994,1.08000,
,,,-0.00665599992,1.08000,
,,,-0.00665399991,1.08000,
,,,-0.00665199989,1.08000,
,,,-0.00664999988,1.08000,
,,,-0.00664799986,1.08000,
,,,-0.00664599985,1.08000,
,,,-0.00664399983,1.08000,
,,,-0.00664199982,1.08000,
,,,-0.00663999980,1.08000,
,,,-0.00663799979,1.08000,
,,,-0.00663599977,1.00000,
,,,-0.00663399976,0.96000,
,,,-0.00663200021,0.88000,
,,,-0.00663000019,0.88000,
,,,-0.00662800018,0.88000,
,,,-0.00662600016,0.88000,
,,,-0.00662400015,0.88000,
,,,-0.00662200013,0.88000,
,,,-0.00662000012,0.88000,
,,,-0.00661800010,0.88000,
,,,-0.00661600009,0.88000,
,,,-0.00661400007,0.88000,
,,,-0.00661200006,0.88000,
,,,-0.00661000004,0.92000,
,,,-0.00660800003,0.88000,
,,,-0.00660600001,0.88000,
,,,-0.00660399999,0.88000,
,,,-0.00660199998,0.88000,
,,,-0.00659999996,0.88000,
,,,-0.00659799995,0.88000,
,,,-0.00659599993,0.88000,
,,,-0.00659399992,0.88000,
,,,-0.00659199990,0.88000,
,,,-0.00658999989,0.88000,
,,,-0.00658799987,0.88000,
,,,-0.00658599986,0.88000,
,,,-0.00658399984,0.88000,
,,,-0.00658199983,0.92000,
,,,-0.00657999981,0.88000,
,,,-0.00657799980,0.88000,
,,,-0.00657599978,0.88000,
,,,-0.00657399977,0.88000,
,,,-0.00657199975,0.88000,
,,,-0.00657000020,0.88000,
,,,-0.00656800019,0.88000,
,,,-0.00656600017,0.88000,
,,,-0.00656400016,0.88000,
,,,-0.00656200014,0.88000,
,,,-0.00656000013,0.88000,
,,,-0.00655800011,0.88000,
,,,-0.00655600009,0.88000,
,,,-0.00655400008,0.92000,
,,,-0.00655200006,0.88000,
,,,-0.00655000005,0.88000,
,,,-0.00654800003,0.88000,
,,,-0.00654600002,0.88000,
,,,-0.00654400000,0.88000,
,,,-0.00654199999,0.88000,
