datos/SDS00001.CSV

Record Length,40000,,Source,CH1,CH2
Sample Interval,CH1:0.0000999999975 CH2:0.0000999999975,,Second,Volt,Volt
Vertical Units,CH1:V CH2:V,,-2.00000000000,0.07200,2.20000
Vertical Scale,CH1:0.10 CH2:1.00,,-1.99989998341,0.37600,1.60000
Vertical Offset,CH1:0.00200 CH2:-0.02000,,-1.99979996681,0.06400,2.12000
Horizontal Units,s,,-1.99969995022,0.40400,0.32000
Horizontal Scale,0.2500000000,,-1.99959993362,0.04800,2.20000
Model Number,SDS1072CML+,,-1.99949991703,0.06800,2.20000
Serial Number,SDS1MCB4166837,,-1.99939990044,0.05600,2.12000
Software Version,6.01.01.18,,-1.99930000305,0.07200,2.20000
,,,-1.99919998646,0.06000,2.20000
,,,-1.99909996986,0.07200,2.16000
,,,-1.99899995327,0.05600,2.20000
,,,-1.99889993668,0.06400,2.16000
,,,-1.99879992008,0.04800,2.12000
,,,-1.99869990349,0.04800,2.20000
,,,-1.99860000610,0.04000,2.16000
,,,-1.99849998951,0.04400,2.16000
,,,-1.99839997292,0.06000,2.16000
,,,-1.99829995632,0.05600,2.16000
,,,-1.99819993973,0.05200,2.20000
,,,-1.99809992313,0.05600,2.20000
,,,-1.99799990654,0.05600,2.16000
,,,-1.99789988995,0.04800,2.16000
,,,-1.99779999256,0.04400,2.16000
,,,-1.99769997597,0.01200,2.20000
,,,-1.99759995937,0.02800,2.20000
,,,-1.99749994278,0.04000,2.16000
,,,-1.99739992619,0.04400,2.20000
,,,-1.99729990959,0.03200,2.16000
,,,-1.99719989300,0.04000,2.24000
,,,-1.99709999561,0.03600,2.16000
,,,-1.99699997902,0.03200,2.16000
,,,-1.99689996243,0.04800,2.20000
,,,-1.99679994583,0.02400,2.16000
,,,-1.99669992924,0.02800,2.16000
,,,-1.99659991264,0.02000,2.16000
,,,-1.99649989605,0.02400,2.16000
,,,-1.99639999866,0.00,2.12000
,,,-1.99629998207,0.01600,2.20000
,,,-1.99619996548,0.04000,2.16000
,,,-1.99609994888,0.03600,2.16000
,,,-1.99599993229,0.04000,2.20000
,,,-1.99589991570,-0.00800,2.16000
,,,-1.99579989910,0.01200,2.20000
,,,-1.99570000172,0.00800,2.16000
,,,-1.99559998512,0.01600,2.16000
,,,-1.99549996853,-0.00800,2.12000
,,,-1.99539995193,0.00400,2.16000
,,,-1.99529993534,0.00,2.16000
,,,-1.99519991875,0.02000,2.20000
,,,-1.99509990215,0.00400,2.16000
,,,-1.99500000477,0.00,2.20000
,,,-1.99489998817,0.00,2.16000
,,,-1.99479997158,-0.01200,2.20000
,,,-1.99469995499,-0.00400,2.16000
,,,-1.99459993839,-0.01200,2.16000
,,,-1.99449992180,-0.01200,2.16000
,,,-1.99439990520,0.00400,2.20000
,,,-1.99430000782,0.00,2.12000
,,,-1.99419999123,-0.01200,2.16000
,,,-1.99409997463,0.00,2.16000
,,,-1.99399995804,0.00400,2.20000
,,,-1.99389994144,-0.02400,2.16000
,,,-1.99379992485,-0.02400,2.16000
,,,-1.99369990826,-0.02000,2.12000
,,,-1.99359989166,-0.02800,2.16000
,,,-1.99349999428,-0.00800,2.16000
,,,-1.99339997768,-0.00400,2.20000
,,,-1.99329996109,-0.00400,2.16000
,,,-1.99319994450,-0.02800,2.16000
,,,-1.99309992790,-0.01200,2.20000
,,,-1.99299991131,-0.01600,2.20000
,,,-1.99289989471,-0.01600,2.16000
,,,-1.99279999733,-0.01200,2.20000
,,,-1.99269998074,-0.06400,2.16000
,,,-1.99259996414,-0.04000,2.20000
,,,-1.99249994755,-0.01600,2.20000
,,,-1.99239993095,-0.03200,2.16000
,,,-1.99229991436,-0.02000,2.20000
,,,-1.99219989777,-0.01600,2.20000
,,,-1.99210000038,-0.04000,2.20000
,,,-1.99199998379,-0.02400,2.16000
,,,-1.99189996719,-0.04000,2.20000
,,,-1.99179995060,-0.02400,2.20000
,,,-1.99169993401,-0.03200,2.20000
,,,-1.99159991741,-0.03200,2.16000
,,,-1.99149990082,-0.02400,2.20000
,,,-1.99140000343,-0.04800,2.16000
,,,-1.99129998684,-0.06400,2.20000
,,,-1.99119997025,-0.04000,2.20000
,,,-1.99109995365,-0.04800,2.16000
,,,-1.99099993706,-0.05600,2.20000
,,,-1.99089992046,-0.03600,2.20000
,,,-1.99079990387,-0.05600,2.16000
,,,-1.99070000648,-0.07200,2.20000
,,,-1.99059998989,-0.07200,2.20000
,,,-1.99049997330,-0.07200,2.20000
,,,-1.99039995670,-0.08400,2.20000
,,,-1.99029994011,-0.06800,2.20000
,,,-1.99019992352,-0.07200,2.16000
,,,-1.99009990692,-0.06400,2.20000
,,,-1.98999989033,-0.07200,2.20000
,,,-1.98989999294,-0.06000,2.24000
,,,-1.98979997635,-0.05600,2.24000
,,,-1.98969995975,-0.07200,2.16000
,,,-1.98959994316,-0.07600,2.16000
,,,-1.98949992657,-0.06000,2.20000
,,,-1.98939990997,-0.07600,2.16000
,,,-1.98929989338,-0.08400,2.12000
,,,-1.98919999599,-0.07600,2.20000
,,,-1.98909997940,-0.08800,2.16000
,,,-1.98899996281,-0.05600,2.20000
,,,-1.98889994621,-0.08000,2.20000
,,,-1.98879992962,-0.07200,2.16000
,,,-1.98869991302,-0.07200,2.20000
,,,-1.98859989643,-0.05200,2.20000
,,,-1.98849999905,-0.08800,2.20000
,,,-1.98839998245,-0.08000,2.20000
,,,-1.98829996586,-0.08000,2.20000
,,,-1.98819994926,-0.08800,2.20000
,,,-1.98809993267,-0.09600,2.20000
,,,-1.98799991608,-0.10000,2.20000
,,,-1.98789989948,-0.08400,2.16000
,,,-1.98780000210,-0.07600,2.20000
,,,-1.98769998550,-0.07200,2.20000
,,,-1.98759996891,-0.10000,2.20000
,,,-1.98749995232,-0.10000,2.20000
,,,-1.98739993572,-0.10000,2.20000
,,,-1.98729991913,-0.08400,2.20000
,,,-1.98719990253,-0.09600,2.16000
,,,-1.98710000515,-0.08400,2.24000
,,,-1.98699998856,-0.08800,2.20000
,,,-1.98689997196,-0.08400,2.16000
,,,-1.98679995537,-0.10400,2.20000
,,,-1.98669993877,-0.09600,2.16000
,,,-1.98659992218,-0.08800,2.20000
,,,-1.98649990559,-0.09600,2.20000
,,,-1.98640000820,-0.08800,2.20000
,,,-1.98629999161,-0.09600,2.20000
,,,-1.98619997501,-0.08400,2.20000
,,,-1.98609995842,-0.10000,2.20000
,,,-1.98599994183,-0.11200,2.16000
,,,-1.98589992523,-0.09200,2.20000
,,,-1.98579990864,-0.11200,2.16000
,,,-1.98569989204,-0.11600,2.20000
,,,-1.98559999466,-0.10000,2.20000
,,,-1.98549997807,-0.08800,2.20000
,,,-1.98539996147,-0.10000,2.20000
,,,-1.98529994488,-0.10800,2.16000
,,,-1.98519992828,-0.10000,2.16000
,,,-1.98509991169,-0.10000,2.16000
,,,-1.98499989510,-0.09600,2.16000
,,,-1.98489999771,-0.08800,2.20000
,,,-1.98479998112,-0.11200,2.20000
,,,-1.98469996452,-0.11200,2.20000
,,,-1.98459994793,-0.11600,2.20000
,,,-1.98449993134,-0.10400,2.20000
,,,-1.98439991474,-0.10800,2.16000
,,,-1.98429989815,-0.09600,2.16000
,,,-1.98420000076,-0.10800,2.16000
,,,-1.98409998417,-0.10400,2.20000
,,,-1.98399996758,-0.10800,2.20000
,,,-1.98389995098,-0.10800,2.20000
,,,-1.98379993439,-0.13200,2.20000
,,,-1.98369991779,-0.12400,2.20000
,,,-1.98359990120,-0.12000,2.16000
,,,-1.98350000381,-0.10800,2.16000
,,,-1.98339998722,-0.10000,2.16000
,,,-1.98329997063,-0.12000,2.24000
,,,-1.98319995403,-0.10000,2.20000
,,,-1.98309993744,-0.10000,2.24000
,,,-1.98299992085,-0.10800,2.20000
,,,-1.98289990425,-0.10800,2.20000
,,,-1.98280000687,-0.11600,2.20000
,,,-1.98269999027,-0.11600,2.20000
,,,-1.98259997368,-0.10000,2.24000
,,,-1.98249995708,-0.10000,2.16000
,,,-1.98239994049,-0.11200,2.20000
,,,-1.98229992390,-0.11200,2.20000
,,,-1.98219990730,-0.10400,2.20000
,,,-1.98209989071,-0.12400,2.20000
,,,-1.98199999332,-0.10000,2.24000
,,,-1.98189997673,-0.10000,2.20000
,,,-1.98179996014,-0.09600,2.24000
,,,-1.98169994354,-0.10000,2.24000
,,,-1.98159992695,-0.10800,2.24000
,,,-1.98149991035,-0.10000,2.20000
,,,-1.98139989376,-0.11600,2.20000
,,,-1.98129999638,-0.10000,2.16000
,,,-1.98119997978,-0.10800,2.24000
,,,-1.98109996319,-0.09600,2.20000
,,,-1.98099994659,-0.10000,2.24000
,,,-1.98089993000,-0.09600,2.20000
,,,-1.98079991341,-0.09200,2.24000
,,,-1.98069989681,-0.11200,2.16000
,,,-1.98059999943,-0.09200,2.20000
,,,-1.98049998283,-0.10400,2.20000
,,,-1.98039996624,-0.10400,2.20000
,,,-1.98029994965,-0.12000,2.16000
,,,-1.98019993305,-0.10400,2.16000
,,,-1.98009991646,-0.10000,2.20000
,,,-1.97999989986,-0.12400,2.20000
,,,-1.97990000248,-0.10400,2.20000
,,,-1.97979998589,-0.10800,2.20000
,,,-1.97969996929,-0.10400,2.20000
,,,-1.97959995270,-0.10000,2.20000
,,,-1.97949993610,-0.09600,2.20000
,,,-1.97939991951,-0.10800,2.20000
,,,-1.97929990292,-0.10000,2.20000
,,,-1.97920000553,-0.10000,2.16000
,,,-1.97909998894,-0.10000,2.16000
,,,-1.97899997234,-0.10000,2.24000
,,,-1.97889995575,-0.10800,2.20000
,,,-1.97879993916,-0.10000,2.20000
,,,-1.97869992256,-0.10000,2.16000
,,,-1.97859990597,-0.10000,2.24000
,,,-1.97850000858,-0.08800,2.20000
,,,-1.97839999199,-0.11600,2.16000
,,,-1.97829997540,-0.09600,2.16000
,,,-1.97819995880,-0.11600,2.20000
,,,-1.97809994221,-0.10000,2.20000
,,,-1.97799992561,-0.10000,2.16000
,,,-1.97789990902,-0.10800,2.20000
,,,-1.97779989243,-0.09600,2.24000
,,,-1.97769999504,-0.11600,2.24000
,,,-1.97759997845,-0.08800,2.20000
,,,-1.97749996185,-0.10000,2.20000
,,,-1.97739994526,-0.10000,2.20000
,,,-1.97729992867,-0.10000,2.20000
,,,-1.97719991207,-0.10000,2.16000
,,,-1.97709989548,-0.10000,2.20000
,,,-1.97699999809,-0.08800,2.20000
,,,-1.97689998150,-0.08000,2.20000
,,,-1.97679996490,-0.10000,2.24000
,,,-1.97669994831,-0.10000,2.16000
,,,-1.97659993172,-0.10000,2.16000
,,,-1.97649991512,-0.08800,2.16000
,,,-1.97639989853,-0.10000,2.20000
,,,-1.97630000114,-0.08800,2.16000
,,,-1.97619998455,-0.08400,2.20000
,,,-1.97609996796,-0.06400,2.20000
,,,-1.97599995136,-0.08400,2.20000
,,,-1.97589993477,-0.08800,2.16000
,,,-1.97579991817,-0.08400,2.20000
,,,-1.97569990158,-0.07200,2.16000
,,,-1.97560000420,-0.08000,2.20000
,,,-1.97549998760,-0.08000,2.20000
,,,-1.97539997101,-0.08800,2.20000
,,,-1.97529995441,-0.06400,2.20000
,,,-1.97519993782,-0.06400,2.16000
,,,-1.97509992123,-0.06400,2.20000
,,,-1.97499990463,-0.07200,2.20000
,,,-1.97490000725,-0.08000,2.16000
,,,-1.97479999065,-0.07200,2.16000
,,,-1.97469997406,-0.07200,2.20000
,,,-1.97459995747,-0.08000,2.20000
,,,-1.97449994087,-0.06000,2.20000
,,,-1.97439992428,-0.04800,2.16000
,,,-1.97429990768,-0.06400,2.16000
,,,-1.97419989109,-0.06400,2.16000
,,,-1.97409999371,-0.06400,2.24000
,,,-1.97399997711,-0.06400,2.16000
,,,-1.97389996052,-0.05200,2.16000
,,,-1.97379994392,-0.04400,2.20000
,,,-1.97369992733,-0.04800,2.16000
,,,-1.97359991074,-0.05600,2.16000
,,,-1.97349989414,-0.04000,2.20000
,,,-1.97339999676,-0.05200,2.20000
,,,-1.97329998016,-0.04400,2.20000
,,,-1.97319996357,-0.04400,2.20000
,,,-1.97309994698,-0.04000,2.16000
,,,-1.97299993038,-0.05600,2.20000
,,,-1.97289991379,-0.06000,2.16000
,,,-1.97279989719,-0.04400,2.20000
,,,-1.97269999981,-0.05600,2.16000
,,,-1.97259998322,-0.04400,2.24000
,,,-1.97249996662,-0.05200,2.20000
,,,-1.97239995003,-0.04000,2.16000
,,,-1.97229993343,-0.01600,2.16000
,,,-1.97219991684,-0.02800,2.16000
,,,-1.97209990025,-0.04800,2.24000
,,,-1.97200000286,-0.04000,2.20000
,,,-1.97189998627,-0.02000,2.20000
,,,-1.97179996967,-0.01600,2.16000
,,,-1.97169995308,-0.02400,2.24000
,,,-1.97159993649,-0.02000,2.16000
,,,-1.97149991989,-0.02800,2.20000
,,,-1.97139990330,-0.02000,2.16000
,,,-1.97130000591,-0.03600,2.20000
,,,-1.97119998932,-0.02400,2.24000
,,,-1.97109997272,-0.03200,2.16000
,,,-1.97099995613,-0.01200,2.20000
,,,-1.97089993954,-0.01200,2.20000
,,,-1.97079992294,-0.01200,2.20000
,,,-1.97069990635,-0.00400,2.16000
,,,-1.97060000896,-0.02400,2.16000
,,,-1.97049999237,0.00800,2.20000
,,,-1.97039997578,-0.02800,2.20000
,,,-1.97029995918,-0.00800,2.16000
,,,-1.97019994259,-0.01200,2.16000
,,,-1.97009992599,-0.02400,2.16000
,,,-1.96999990940,-0.00400,2.20000
,,,-1.96989989281,-0.00400,2.16000
,,,-1.96979999542,-0.01200,2.20000
,,,-1.96969997883,0.00800,2.16000
,,,-1.96959996223,0.00800,2.20000
,,,-1.96949994564,0.00,2.20000
,,,-1.96939992905,0.01200,2.20000
,,,-1.96929991245,0.00800,2.20000
,,,-1.96919989586,0.00,2.16000
,,,-1.96909999847,0.01600,2.20000
,,,-1.96899998188,0.00,2.20000
,,,-1.96889996529,0.00,2.16000
,,,-1.96879994869,0.02800,2.16000
,,,-1.96869993210,0.01200,2.16000
,,,-1.96859991550,-0.00400,2.20000
,,,-1.96849989891,0.01200,2.16000
,,,-1.96840000153,0.01600,2.20000
,,,-1.96829998493,0.02000,2.20000
,,,-1.96819996834,0.00800,2.20000
,,,-1.96809995174,0.00800,2.20000
,,,-1.96799993515,0.00800,2.16000
,,,-1.96789991856,0.01600,2.16000
,,,-1.96779990196,0.02800,2.20000
,,,-1.96770000458,0.04400,2.20000
,,,-1.96759998798,0.00800,2.16000
,,,-1.96749997139,0.02400,2.20000
,,,-1.96739995480,0.02400,2.20000
,,,-1.96729993820,0.03200,2.16000
,,,-1.96719992161,0.03200,2.16000
,,,-1.96709990501,0.02400,2.16000
,,,-1.96700000763,0.02800,2.16000
,,,-1.96689999104,0.05200,2.20000
,,,-1.96679997444,0.05200,2.20000
,,,-1.96669995785,0.04000,2.16000
,,,-1.96659994125,0.00800,2.16000
,,,-1.96649992466,0.05600,2.20000
,,,-1.96639990807,0.05200,2.16000
,,,-1.96629989147,0.06000,2.16000
,,,-1.96619999409,0.04800,2.16000
,,,-1.96609997749,0.05200,2.16000
,,,-1.96599996090,0.04000,2.20000
,,,-1.96589994431,0.05600,2.16000
,,,-1.96579992771,0.05600,2.16000
,,,-1.96569991112,0.04000,2.20000
,,,-1.96559989452,0.04400,2.16000
,,,-1.96549999714,0.03200,2.12000
,,,-1.96539998055,0.04000,2.16000
,,,-1.96529996395,0.05200,2.20000
,,,-1.96519994736,0.03200,2.16000
,,,-1.96509993076,0.07200,2.20000
,,,-1.96499991417,0.06000,0.84000
,,,-1.96489989758,0.06400,0.84000
,,,-1.96480000019,0.05600,0.80000
,,,-1.96469998360,0.06400,0.84000
,,,-1.96459996700,0.06400,0.80000
,,,-1.96449995041,0.05600,0.84000
,,,-1.96439993382,0.05600,0.84000
,,,-1.96429991722,0.06400,0.84000
,,,-1.96419990063,0.06800,0.80000
,,,-1.96410000324,0.05600,0.84000
,,,-1.96399998665,0.06400,0.88000
,,,-1.96389997005,0.06400,0.84000
,,,-1.96379995346,0.06400,0.84000
,,,-1.96369993687,0.07200,0.84000
,,,-1.96359992027,0.07600,0.84000
,,,-1.96349990368,0.06800,0.88000
,,,-1.96340000629,0.08000,0.84000
,,,-1.96329998970,0.07200,0.80000
,,,-1.96319997311,0.07200,0.80000
,,,-1.96309995651,0.07200,0.84000
,,,-1.96299993992,0.07200,0.80000
,,,-1.96289992332,0.07600,0.84000
,,,-1.96279990673,0.07200,0.84000
,,,-1.96270000935,0.08000,0.84000
,,,-1.96259999275,0.07200,0.84000
,,,-1.96249997616,0.07200,0.84000
,,,-1.96239995956,0.08000,0.80000
,,,-1.96229994297,0.07600,0.84000
,,,-1.96219992638,0.08000,0.84000
,,,-1.96209990978,0.06000,0.84000
,,,-1.96199989319,0.07200,0.84000
,,,-1.96189999580,0.08800,0.84000
,,,-1.96179997921,0.08000,0.84000
,,,-1.96169996262,0.07600,0.84000
,,,-1.96159994602,0.08000,0.84000
,,,-1.96149992943,0.09200,0.84000
,,,-1.96139991283,0.08000,0.84000
,,,-1.96129989624,0.07200,0.80000
,,,-1.96119999886,0.06800,0.84000
,,,-1.96109998226,0.07600,0.84000
,,,-1.96099996567,0.07200,0.80000
,,,-1.96089994907,0.08800,0.80000
,,,-1.96079993248,0.08400,0.84000
,,,-1.96069991589,0.08800,0.80000
,,,-1.96059989929,0.07200,0.88000
,,,-1.96050000191,0.07200,0.84000
,,,-1.96039998531,0.08000,0.84000
,,,-1.96029996872,0.08400,0.84000
,,,-1.96019995213,0.07600,0.84000
,,,-1.96009993553,0.07200,0.84000
,,,-1.95999991894,0.08800,0.84000
,,,-1.95989990234,0.08000,0.88000
,,,-1.95980000496,0.07200,0.84000
,,,-1.95969998837,0.06400,0.84000
,,,-1.95959997177,0.07200,0.84000
,,,-1.95949995518,0.07200,0.84000
,,,-1.95939993858,0.06800,0.84000
,,,-1.95929992199,0.07200,0.84000
,,,-1.95919990540,0.07200,0.88000
,,,-1.95910000801,0.05600,0.84000
,,,-1.95899999142,0.05600,0.84000
,,,-1.95889997482,0.08000,0.84000
,,,-1.95879995823,0.06000,0.84000
,,,-1.95869994164,0.06800,0.84000
,,,-1.95859992504,0.05600,0.80000
,,,-1.95849990845,0.05600,0.84000
,,,-1.95839989185,0.05200,0.80000
,,,-1.95829999447,0.05200,0.84000
,,,-1.95819997787,0.06400,0.84000
,,,-1.95809996128,0.02400,0.84000
,,,-1.95799994469,0.07600,0.88000
,,,-1.95789992809,0.05600,0.84000
,,,-1.95779991150,0.06400,0.84000
,,,-1.95769989491,0.04400,0.88000
,,,-1.95759999752,0.05200,0.80000
,,,-1.95749998093,0.04800,0.84000
,,,-1.95739996433,0.04400,0.80000
,,,-1.95729994774,0.06000,0.84000
,,,-1.95719993114,0.04400,0.80000
,,,-1.95709991455,0.06400,0.84000
,,,-1.95699989796,0.04000,0.84000
,,,-1.95690000057,0.04000,0.80000
,,,-1.95679998398,0.05200,0.84000
,,,-1.95669996738,0.03600,0.88000
,,,-1.95659995079,0.04000,0.84000
,,,-1.95649993420,0.04400,0.88000
,,,-1.95639991760,0.04800,0.84000
,,,-1.95629990101,0.04400,0.80000
,,,-1.95620000362,0.05600,0.84000
,,,-1.95609998703,0.02800,0.84000
,,,-1.95599997044,0.04400,0.80000
,,,-1.95589995384,0.05200,0.84000
,,,-1.95579993725,0.04800,0.88000
,,,-1.95569992065,0.04000,0.84000
,,,-1.95559990406,0.04000,0.84000
,,,-1.95550000668,0.05600,0.84000
,,,-1.95539999008,0.03600,0.88000
,,,-1.95529997349,0.04000,0.88000
,,,-1.95519995689,0.04400,0.84000
,,,-1.95509994030,0.04000,0.84000
,,,-1.95499992371,0.02800,0.84000
,,,-1.95489990711,0.04000,0.88000
,,,-1.95480000973,0.02800,0.84000
,,,-1.95469999313,0.03200,0.84000
,,,-1.95459997654,0.03200,0.80000
,,,-1.95449995995,0.02400,0.84000
,,,-1.95439994335,0.04000,0.84000
,,,-1.95429992676,0.03200,0.88000
,,,-1.95419991016,0.03200,0.84000
,,,-1.95409989357,0.02800,0.84000
,,,-1.95399999619,0.03200,0.84000
,,,-1.95389997959,0.02000,0.84000
,,,-1.95379996300,0.02400,0.84000
,,,-1.95369994640,0.03200,0.84000
,,,-1.95359992981,0.03600,0.84000
,,,-1.95349991322,0.02800,0.88000
,,,-1.95339989662,0.01600,0.84000
,,,-1.95329999924,0.02400,0.84000
,,,-1.95319998264,0.02400,0.88000
,,,-1.95309996605,0.02800,0.84000
,,,-1.95299994946,0.01600,0.84000
,,,-1.95289993286,0.02400,0.84000
,,,-1.95279991627,0.01600,0.84000
,,,-1.95269989967,0.01600,0.84000
,,,-1.95260000229,0.02000,0.84000
,,,-1.95249998569,0.02400,0.92000
,,,-1.95239996910,0.02000,0.84000
,,,-1.95229995251,0.02400,0.84000
,,,-1.95219993591,0.01600,0.84000
,,,-1.95209991932,0.03600,0.84000
,,,-1.95199990273,0.02400,0.84000
,,,-1.95190000534,0.02000,0.84000
,,,-1.95179998875,0.02400,0.92000
,,,-1.95169997215,0.02400,0.84000
,,,-1.95159995556,0.02000,0.84000
,,,-1.95149993896,0.03200,0.88000
,,,-1.95139992237,0.01600,0.84000
,,,-1.95129990578,0.00800,0.80000
,,,-1.95120000839,0.02400,0.84000
,,,-1.95109999180,0.01200,0.88000
,,,-1.95099997520,0.02400,0.80000
,,,-1.95089995861,0.02000,0.88000
,,,-1.95079994202,0.01200,0.80000
,,,-1.95069992542,0.01600,0.84000
,,,-1.95059990883,0.01600,0.84000
,,,-1.95049989223,0.01200,0.84000
,,,-1.95039999485,0.01600,0.84000
,,,-1.95029997826,0.01600,0.84000
,,,-1.95019996166,0.01600,0.84000
,,,-1.95009994507,0.02000,0.84000
,,,-1.94999992847,0.00800,0.84000
,,,-1.94989991188,0.01600,0.88000
,,,-1.94979989529,0.02000,0.88000
,,,-1.94969999790,0.02000,0.88000
,,,-1.94959998131,0.00800,0.84000
,,,-1.94949996471,-0.00400,0.88000
,,,-1.94939994812,0.01600,0.84000
,,,-1.94929993153,0.00400,0.84000
,,,-1.94919991493,0.00,0.84000
,,,-1.94909989834,0.00800,0.80000
,,,-1.94900000095,0.01200,0.84000
,,,-1.94889998436,0.00800,0.88000
,,,-1.94879996777,0.01200,0.84000
,,,-1.94869995117,0.02000,0.84000
,,,-1.94859993458,0.00,0.88000
,,,-1.94849991798,0.00400,0.88000
,,,-1.94839990139,0.01200,0.84000
,,,-1.94830000401,0.01600,0.84000
,,,-1.94819998741,0.02000,0.88000
,,,-1.94809997082,0.01200,0.88000
,,,-1.94799995422,0.01600,0.88000
,,,-1.94789993763,0.00400,0.88000
,,,-1.94779992104,0.01600,0.84000
,,,-1.94769990444,0.01600,0.84000
,,,-1.94760000706,0.00400,0.84000
,,,-1.94749999046,0.01600,0.88000
,,,-1.94739997387,0.02000,0.88000
,,,-1.94729995728,0.00800,0.84000
,,,-1.94719994068,0.02400,0.88000
,,,-1.94709992409,0.02000,0.84000
,,,-1.94699990749,0.01200,0.80000
,,,-1.94690001011,0.01200,0.84000
,,,-1.94679999352,0.01600,0.84000
,,,-1.94669997692,0.02400,0.92000
,,,-1.94659996033,0.01600,0.88000
,,,-1.94649994373,0.02400,0.88000
,,,-1.94639992714,0.00,0.88000
,,,-1.94629991055,0.02400,0.84000
,,,-1.94619989395,0.02000,0.88000
,,,-1.94609999657,0.02800,0.84000
,,,-1.94599997997,0.00800,0.84000
,,,-1.94589996338,0.00,0.84000
,,,-1.94579994678,0.01600,0.84000
,,,-1.94569993019,0.01200,0.84000
,,,-1.94559991360,0.02400,0.84000
,,,-1.94549989700,0.02000,0.88000
,,,-1.94539999962,0.02000,0.88000
,,,-1.94529998302,0.02000,0.84000
,,,-1.94519996643,0.02800,0.92000
,,,-1.94509994984,0.01600,0.88000
,,,-1.94499993324,0.02400,0.88000
,,,-1.94489991665,0.02800,0.84000
,,,-1.94479990005,0.02400,0.84000
,,,-1.94470000267,0.02800,0.88000
,,,-1.94459998608,0.01600,0.88000
,,,-1.94449996948,0.01600,0.92000
,,,-1.94439995289,0.02400,0.84000
,,,-1.94429993629,0.03200,0.88000
,,,-1.94419991970,0.02400,0.88000
,,,-1.94409990311,0.01600,0.88000
,,,-1.94400000572,0.03200,0.88000
,,,-1.94389998913,0.02000,0.84000
,,,-1.94379997253,0.02800,0.88000
,,,-1.94369995594,0.04000,0.84000
,,,-1.94359993935,0.02400,0.84000
,,,-1.94349992275,0.02800,0.84000
,,,-1.94339990616,0.02400,0.84000
,,,-1.94330000877,0.03600,0.84000
,,,-1.94319999218,0.01600,0.88000
,,,-1.94309997559,0.03200,0.88000
,,,-1.94299995899,0.02800,0.84000
,,,-1.94289994240,0.03600,0.92000
